module calculator.com/api/v2

go 1.19

require (
	github.com/0xAX/notificator v0.0.0-20220220101646-ee9b8921e557 // indirect
	github.com/codegangsta/envy v0.0.0-20141216192214-4b78388c8ce4 // indirect
	github.com/codegangsta/gin v0.0.0-20211113050330-71f90109db02 // indirect
	github.com/cpuguy83/go-md2man/v2 v2.0.2 // indirect
	github.com/gorilla/mux v1.8.0 // indirect
	github.com/mattn/go-shellwords v1.0.12 // indirect
	github.com/russross/blackfriday/v2 v2.1.0 // indirect
	github.com/urfave/cli v1.22.12 // indirect
)
